…
```r
exp_lvl5 %>% filter(Expr_sum_mean>1) %>% magma_top10("ClusterID")
```

```
## Warning: `group_by_()` was deprecated in dplyr 0.7.0.
## ℹ Please use `group_by()` instead.
## ℹ See vignette('programming') for more help
## ℹ The deprecated feature was likely used in the dplyr package.
##   Please report the issue at <https://github.com/tidyverse/dplyr/issues>.
```

```
## # A tibble: 803,523 × 462
## # Groups:   ClusterID [461]
##    ClusterID Cluster0 Cluster1 Cluster10 Clust…¹ Clust…² Clust…³ Clust…⁴ Clust…⁵
##    <chr>     <chr>    <chr>    <chr>     <chr>   <chr>   <chr>   <chr>   <chr>  
##  1 Cluster0  146429   <NA>     <NA>      <NA>    <NA>    <NA>    <NA>    <NA>   
##  2 Cluster0  643866   <NA>     <NA>      <NA>    <NA>    <NA>    <NA>    <NA>   
##  3 Cluster0  9447     <NA>     <NA>      <NA>    <NA>    <NA>    <NA>    <NA>   
##  4 Cluster0  7161     <NA>     <NA>      <NA>    <NA>    <NA>    <NA>    <NA>   
##  5 Cluster0  8407     <NA>     <NA>      <NA>    <NA>    <NA>    <NA>    <NA>   
##  6 Cluster0  8556     <NA>     <NA>      <NA>    <NA>    <NA>    <NA>    <NA>   
##  7 Cluster0  55289    <NA>     <NA>      <NA>    <NA>    <NA>    <NA>    <NA>   
##  8 Cluster0  10451    <NA>     <NA>      <NA>    <NA>    <NA>    <NA>    <NA>   
##  9 Cluster0  131096   <NA>     <NA>      <NA>    <NA>    <NA>    <NA>    <NA>   
## 10 Cluster0  22861    <NA>     <NA>      <NA>    <NA>    <NA>    <NA>    <NA>   
## # … with 803,513 more rows, 453 more variables: Cluster105 <chr>,
## #   Cluster106 <chr>, Cluster107 <chr>, Cluster108 <chr>, Cluster109 <chr>,
## #   Cluster11 <chr>, Cluster110 <chr>, Cluster111 <chr>, Cluster112 <chr>,
## #   Cluster113 <chr>, Cluster114 <chr>, Cluster115 <chr>, Cluster116 <chr>,
## #   Cluster117 <chr>, Cluster118 <chr>, Cluster119 <chr>, Cluster12 <chr>,
## #   Cluster120 <chr>, Cluster121 <chr>, Cluster122 <chr>, Cluster123 <chr>,
## #   Cluster124 <chr>, Cluster125 <chr>, Cluster126 <chr>, Cluster127 <chr>, …
```


```r
exp_lvl5 %>% filter(Expr_sum_mean>1) %>% ldsc_bedfile("ClusterID")
```

```
## # A tibble: 803,523 × 5
## # Groups:   ClusterID [461]
##    ClusterID chr       start       end ENTREZ
##    <chr>     <chr>     <dbl>     <dbl> <chr> 
##  1 Cluster0  chr16  89162169  89367757 146429
##  2 Cluster0  chr14  24795738  24998731 643866
##  3 Cluster0  chr1  158928790 159146685 9447  
##  4 Cluster0  chr1    3469129   3752765 7161  
##  5 Cluster0  chr1  159787897 159995332 8407  
##  6 Cluster0  chr1  100710598 101085833 8556  
##  7 Cluster0  chr2  111390150 111975799 55289 
##  8 Cluster0  chr1  108013782 108607545 10451 
##  9 Cluster0  chr3   19089946  19677135 131096
## 10 Cluster0  chr17   5304719   5587832 22861 
## # … with 803,513 more rows
```
